id,trigger,conditions,script,text,options,notes
,,,,,,
flavorTextMarketEsiraDavis,TradePanelFlavorText,"$global.tradePanelMode == MARKET
$faction.id == esi
$market.id == esi_davis","AddText ""An Synarch officer checks your credentials before allowing you to board one of the Vacc-Elevators. After waiting (a faintly ridiculous amount of time) for additional passengers, you then quickly descend a dizzying number of levels to the main commerce areas."" marketFlavorTextColor
AddText ""The major trade halls of Davis greets you with conversation in the typical Esiran accent clashing with that of offworlders. Everyone seems intent on procuring their last goods before heading to the inner systems."" marketFlavorTextColor",,,
flavorTextMarketEsiraMawson,TradePanelFlavorText,"$global.tradePanelMode == MARKET
$faction.id == esi
$market.id == esi_mawson","AddText ""The distinct lack of visible people is unsettling and the number of drones moving between the automated mega-factories is almost alarming."" marketFlavorTextColor
AddText ""It seems scant attention is being paid to any visitors, with most craft leaving as soon the last cargo block is loaded, not wanting to wait around."" marketFlavorTextColor",,,
flavorTextMarketEsiraCasey,TradePanelFlavorText,"$global.tradePanelMode == MARKET
$faction.id == esi
$market.id == esi_casey","AddText ""Huge mining bots ponderously trundle past, moving to and fro between the gaping mining pits and the tiny spaceport area."" marketFlavorTextColor
AddText ""A few bored-looking Esirans breifly look you over before turning back to their Tripad's."" marketFlavorTextColor",,,